
                                                                                                               dddddddd
UUUUUUUU     UUUUUUUU                 lllllll                                      kkkkkkkk                    d::::::d
U::::::U     U::::::U                 l:::::l                                      k::::::k                    d::::::d
U::::::U     U::::::U                 l:::::l                                      k::::::k                    d::::::d
UU:::::U     U:::::UU                 l:::::l                                      k::::::k                    d:::::d
 U:::::U     U:::::Unnnn  nnnnnnnn     l::::l    ooooooooooo       cccccccccccccccc k:::::k    kkkkkkk ddddddddd:::::d
 U:::::D     D:::::Un:::nn::::::::nn   l::::l  oo:::::::::::oo   cc:::::::::::::::c k:::::k   k:::::kdd::::::::::::::d
 U:::::D     D:::::Un::::::::::::::nn  l::::l o:::::::::::::::o c:::::::::::::::::c k:::::k  k:::::kd::::::::::::::::d
 U:::::D     D:::::Unn:::::::::::::::n l::::l o:::::ooooo:::::oc:::::::cccccc:::::c k:::::k k:::::kd:::::::ddddd:::::d
 U:::::D     D:::::U  n:::::nnnn:::::n l::::l o::::o     o::::oc::::::c     ccccccc k::::::k:::::k d::::::d    d:::::d
 U:::::D     D:::::U  n::::n    n::::n l::::l o::::o     o::::oc:::::c              k:::::::::::k  d:::::d     d:::::d
 U:::::D     D:::::U  n::::n    n::::n l::::l o::::o     o::::oc:::::c              k:::::::::::k  d:::::d     d:::::d
 U::::::U   U::::::U  n::::n    n::::n l::::l o::::o     o::::oc::::::c     ccccccc k::::::k:::::k d:::::d     d:::::d
 U:::::::UUU:::::::U  n::::n    n::::nl::::::lo:::::ooooo:::::oc:::::::cccccc:::::ck::::::k k:::::kd::::::ddddd::::::dd
  UU:::::::::::::UU   n::::n    n::::nl::::::lo:::::::::::::::o c:::::::::::::::::ck::::::k  k:::::kd:::::::::::::::::d
    UU:::::::::UU     n::::n    n::::nl::::::l oo:::::::::::oo   cc:::::::::::::::ck::::::k   k:::::kd:::::::::ddd::::d
      UUUUUUUUU       nnnnnn    nnnnnnllllllll   ooooooooooo       cccccccccccccccckkkkkkkk    kkkkkkkddddddddd   ddddd
